[
	{
		"formId": "form1",
		"formName": "Personal",
		"formTitle": "Personal Details",
		"formDescription": "Tell us about yourself...",
		"formCTA": "Submit and next",
		"formIsActive": false,
		"formReviewFormat": "This is $$value$$",
		"formSections": [
			{
				"sectionId": "sectionBasic",
				"sectionHeading": "Basic",
				"sectionReviewFieldIds": [
					"fullName",
					"gender",
					"address",
					"hobbies"
				],
				"sectionFields": [
					{
						"fieldId": "fullName",
						"fieldType": "text",
						"fieldValue": "abc",
						"fieldHidden": false,
						"placeholder": "Enter full name...",
						"label": "Full Name"
					},
					{
						"fieldId": "address",
						"fieldType": "textarea",
						"fieldValue": "",
						"fieldHidden": false,
						"placeholder": "Enter address...",
						"label": "Address",
						"fieldReviewFormat": "Address: $$value$$"
					},
					{
						"fieldId": "gender",
						"fieldType": "radio",
						"fieldValue": "",
						"fieldHidden": false,
						"options": {
							"Male": "Male",
							"Female": "Female"
						},
						"label": "Gender",
						"fieldReviewFormat": "Gender: $$value$$"
					},
					{
						"fieldId": "city",
						"fieldType": "dropdown",
						"fieldValue": "",
						"fieldHidden": false,
						"options": {
							"Mumbai": "Mumbai",
							"Delhi": "Delhi"
						},
						"placeholder": "Select city...",
						"label": "City"
					},
					{
						"fieldId": "hobbies",
						"fieldType": "checkbox",
						"fieldValue": "",
						"options": {
							"Cricket": "Cricket",
							"Football": "Football",
							"Swimming": "Swimming",
							"Drawing": "Drawing"
						},
						"label": "Hobbies",
						"fieldReviewFormat": "Hobbies: $$value$$"
					}
				]
			},
			{
				"sectionId": "sectionCommunication",
				"sectionHeading": "Communication",
				"sectionDescription": "Don't worry we won't bug you",
				"sectionFields": [
					{
						"fieldId": "mobile",
						"fieldType": "text",
						"fieldValue": "",
						"placeholder": "Enter mobile number...",
						"label": "Mobile Number"
					},
					{
						"fieldId": "email",
						"fieldType": "text",
						"fieldValue": "",
						"placeholder": "Enter email...",
						"label": "Email"
					}
				]
			}
		]
	},
	{
		"formId": "form2",
		"formName": "Professional",
		"formTitle": "Professional Details",
		"formDescription": "What has your professional life been like...",
		"formCTA": "Submit and next",
		"formIsActive": false,
		"formSections": [
			{
				"sectionId": "sectionProfession",
				"sectionFields": [
					{
						"fieldId": "experience",
						"fieldType": "dropdown",
						"fieldValue": "",
						"fieldHidden": false,
						"options": {
							"Less than 1 year": 1,
							"2 years": 2,
							"3 years": 3,
							"More than 3 years": 4
						},
						"placeholder": "Select experience in years...",
						"label": "Work experience"
					},
					{
						"fieldId": "company",
						"fieldType": "text",
						"fieldValue": "",
						"fieldHidden": false,
						"placeholder": "Enter company name...",
						"label": "Last company name"
					}
				]
			}
		]
	},
	{
		"formId": "form3",
		"formName": "Goals",
		"formTitle": "Goal Details",
		"formDescription": "Tell us about your goals in life",
		"formCTA": "Submit and review",
		"formIsActive": false,
		"formSections": [
			{
				"sectionId": "sectionGoal",
				"sectionFields": [
					{
						"fieldId": "tenure",
						"fieldType": "dropdown",
						"fieldValue": "",
						"fieldHidden": false,
						"options": {
							"Less than 1 year": 1,
							"1 years": 2,
							"2 years": 3,
							"3 years": 4,
							"More than 3 years": 5
						},
						"placeholder": "Select tenure in years...",
						"label": "By when do you want to complete this goal?"
					},
					{
						"fieldId": "currentCost",
						"fieldType": "text",
						"fieldValue": "",
						"fieldHidden": false,
						"placeholder": "Enter amount...",
						"label": "How much do you think it costs today?"
					}
				]
			}
		]
	}
]